Overview of tidygenclust • tidygenclust
…
Note that the colours assigned to each component are arbitrary and
may (and in this case did) change if we reorder individuals. If you want
complete control of your plot, you can create your own customised plot
with ggplot2; we can use tidy() to easily
extract the required information from a gt_admix object to
use for the plot:

anole_q_tbl <- anole_res %>%
  get_q_matrix(k = 3, run = 1) %>%
  tidy(data = anole_gt)
anole_q_tbl

## # A tibble: 138 × 4
##    id         group            q     percentage
##    <chr>      <chr>            <chr>      <dbl>
##  1 punc_BM288 Amazonian_Forest .Q1   1.000     
##  2 punc_BM288 Amazonian_Forest .Q2   0.00001000
##  3 punc_BM288 Amazonian_Forest .Q3   0.00001000
##  4 punc_GN71  Amazonian_Forest .Q1   1.000     
##  5 punc_GN71  Amazonian_Forest .Q2   0.00001000
##  6 punc_GN71  Amazonian_Forest .Q3   0.00001000
##  7 punc_H1907 Amazonian_Forest .Q1   0.00001000
##  8 punc_H1907 Amazonian_Forest .Q2   1.000     
##  9 punc_H1907 Amazonian_Forest .Q3   0.00001000
## 10 punc_H1911 Amazonian_Forest .Q1   0.00001000
## # ℹ 128 more rows
…
